3semestre/Lab.Lógica/VHDL/ula/simulation/qsim/ula.msim.vcd
$comment
	File created using the following command:
		vcd file ula.msim.vcd -direction
$end
$date
	Wed Mar 13 13:55:11 2024
$end
$version
	Questa Intel Starter FPGA Edition Version 2021.2
$end
$timescale
	1ps
$end

$scope module ula_vhd_vec_tst $end
$var wire 1 ! A [3] $end
$var wire 1 " A [2] $end
$var wire 1 # A [1] $end
$var wire 1 $ A [0] $end
$var wire 1 % B [3] $end
$var wire 1 & B [2] $end
$var wire 1 ' B [1] $end
$var wire 1 ( B [0] $end
$var wire 1 ) F [1] $end
$var wire 1 * F [0] $end
$var wire 1 + Y [3] $end
$var wire 1 , Y [2] $end
$var wire 1 - Y [1] $end
$var wire 1 . Y [0] $end
$var wire 1 / Z $end

$scope module i1 $end
$var wire 1 0 vcc $end
$var wire 1 1 devoe $end
$var wire 1 2 ww_devoe $end
$var wire 1 3 ww_A [3] $end
$var wire 1 4 ww_A [2] $end
$var wire 1 5 ww_A [1] $end
$var wire 1 6 ww_A [0] $end
$var wire 1 7 ww_B [3] $end
$var wire 1 8 ww_B [2] $end
$var wire 1 9 ww_B [1] $end
$var wire 1 : ww_B [0] $end
$var wire 1 ; ww_F [1] $end
$var wire 1 < ww_F [0] $end
$var wire 1 = ww_Y [3] $end
$var wire 1 > ww_Y [2] $end
$var wire 1 ? ww_Y [1] $end
$var wire 1 @ ww_Y [0] $end
$var wire 1 A ww_Z $end
$var wire 1 B \~QUARTUS_CREATED_ADC1~_CHSEL_bus\ [4] $end
$var wire 1 C \~QUARTUS_CREATED_ADC1~_CHSEL_bus\ [3] $end
$var wire 1 D \~QUARTUS_CREATED_ADC1~_CHSEL_bus\ [2] $end
$var wire 1 E \~QUARTUS_CREATED_ADC1~_CHSEL_bus\ [1] $end
$var wire 1 F \~QUARTUS_CREATED_ADC1~_CHSEL_bus\ [0] $end
$var wire 1 G \~QUARTUS_CREATED_GND~I_combout\ $end
$var wire 1 H \~QUARTUS_CREATED_UNVM~~busy\ $end
$var wire 1 I \~QUARTUS_CREATED_ADC1~~eoc\ $end
$var wire 1 J \~QUARTUS_CREATED_ADC2~~eoc\ $end
$var wire 1 K \Y[0]~output_o\ $end
$var wire 1 L \Y[1]~output_o\ $end
$var wire 1 M \Y[2]~output_o\ $end
$var wire 1 N \Y[3]~output_o\ $end
$var wire 1 O \Z~output_o\ $end
$var wire 1 P \A[0]~input_o\ $end
$var wire 1 Q \F[0]~input_o\ $end
$var wire 1 R \B[0]~input_o\ $end
$var wire 1 S \F[1]~input_o\ $end
$var wire 1 T \G4|y[0]~0_combout\ $end
$var wire 1 U \A[1]~input_o\ $end
$var wire 1 V \G3|FA1|cout~0_combout\ $end
$var wire 1 W \B[1]~input_o\ $end
$var wire 1 X \G4|y[1]~1_combout\ $end
$var wire 1 Y \G4|y[1]~2_combout\ $end
$var wire 1 Z \G3|FA2|cout~0_combout\ $end
$var wire 1 [ \B[2]~input_o\ $end
$var wire 1 \ \G4|y[2]~3_combout\ $end
$var wire 1 ] \A[2]~input_o\ $end
$var wire 1 ^ \G4|y[2]~4_combout\ $end
$var wire 1 _ \A[3]~input_o\ $end
$var wire 1 ` \B[3]~input_o\ $end
$var wire 1 a \G4|y[3]~5_combout\ $end
$var wire 1 b \G4|y[3]~6_combout\ $end
$var wire 1 c \G4|y[3]~7_combout\ $end
$var wire 1 d \Z~0_combout\ $end
$var wire 1 e \ALT_INV_Z~0_combout\ $end
$upscope $end
$upscope $end
$enddefinitions $end
#0
$dumpvars
1/
10
11
12
1A
0G
zH
zI
zJ
0K
0L
0M
0N
1O
0P
0Q
0R
0S
0T
0U
0V
0W
0X
0Y
0Z
0[
0\
0]
0^
0_
0`
0a
0b
0c
0d
1e
0!
0"
0#
0$
0%
0&
0'
0(
0)
0*
03
04
05
06
07
08
09
0:
0;
0<
0B
0C
0D
0E
0F
0+
0,
0-
0.
0=
0>
0?
0@
$end
#50000
1*
1<
1Q
1T
1V
1Y
1^
1c
1K
1L
1M
1N
1Z
1d
1@
1?
1>
1=
0e
1.
1-
1,
1+
1a
0O
0A
0/
#100000
0*
1)
0<
1;
0Q
1S
1X
1\
1b
0T
0V
0Y
0Z
0^
0a
0c
0K
0L
0M
0N
0b
0\
0X
0d
1c
1^
1Y
0@
0?
0>
0=
1e
0.
0-
0,
0+
1N
1M
1L
1d
0Y
0^
0c
1=
1>
1?
1O
0e
1-
1,
1+
1A
0L
0M
0N
0d
1/
0?
0>
0=
0O
1e
0-
0,
0+
0A
0/
1O
1A
1/
#150000
1*
1(
1<
1:
1Q
1R
1T
1Y
1^
1c
1K
1L
1M
1N
1d
1@
1?
1>
1=
0e
1.
1-
1,
1+
0O
0A
0/
#200000
0*
0)
1'
0<
0;
19
0Q
0S
1W
1X
0T
0Y
0^
0c
0K
0L
0M
0N
0d
0@
0?
0>
0=
1e
0.
0-
0,
0+
1O
1A
1/
#250000
1*
1&
1<
18
1Q
1[
1\
1^
1c
1M
1N
1d
0^
1>
1=
0e
1,
1+
0M
0>
0O
0,
0A
0/
#300000
0*
1)
0(
1%
0<
1;
0:
17
0Q
1S
0R
1`
1b
1Y
1^
0c
1L
1M
0N
1c
1?
1>
0=
1-
1,
0+
1N
1=
1+
#350000
1*
1$
1<
16
1Q
1P
1T
1V
0Y
0^
0c
1K
0L
0M
0N
0X
1@
0?
0>
0=
1.
0-
0,
0+
1Y
1L
1?
1-
#400000
0*
0)
0'
1#
0<
0;
09
15
0Q
0S
0W
1U
0T
0V
0Y
1Z
0K
0L
1a
0Z
0d
0@
0?
1e
0.
0-
0a
1O
1A
1/
#450000
1*
1(
1"
1<
1:
14
1Q
1R
1]
1V
1Y
1Z
1L
1a
1d
1?
0e
1-
0O
0A
0/
#500000
0*
1)
0&
1!
0<
1;
08
13
0Q
1S
0[
1_
1X
0b
1c
0Y
1N
0L
1=
0?
0-
1+
#550000
1*
1<
1Q
1Y
1^
0c
1L
1M
0N
1?
1>
0=
1-
1,
0+
#600000
0*
0)
0(
1'
0%
0<
0;
0:
19
07
0Q
0S
0R
1W
0`
0\
0V
0^
0M
0>
0,
#650000
1*
1<
1Q
1T
1V
0Y
0Z
1^
1c
1K
0L
1M
1N
1Z
1@
0?
1>
1=
1.
0-
1,
1+
#700000
0*
1)
0$
0<
1;
06
0Q
1S
0P
0X
1\
1b
0T
0V
0K
1X
0c
0^
1Y
0@
0.
0N
0M
1L
0Y
0=
0>
1?
1-
0,
0+
0L
0d
0?
1e
0-
1O
1A
1/
#750000
1*
1(
1&
1<
1:
18
1Q
1R
1[
0\
1T
1Y
0Z
1^
1c
1K
1L
1M
1N
1\
0a
1d
0^
1@
1?
1>
1=
0e
1.
1-
1,
1+
0M
0b
1^
0>
0O
0,
0A
1M
0c
0/
1>
1,
0N
0=
0+
#800000
0*
0)
0'
0#
0<
0;
09
05
0Q
0S
0W
0U
0X
0T
0Y
1a
0K
0L
0@
0?
0.
0-
#850000
1*
1<
1Q
1Y
0^
0a
1c
1L
0M
1N
1?
0>
1=
1-
0,
1+
#900000
0*
1)
0(
1%
0"
0<
1;
0:
17
04
0Q
1S
0R
1`
0]
1b
0Y
1^
0L
1M
0c
0?
1>
0-
1,
0N
0=
0+
#950000
1*
1<
1Q
1V
1Y
0^
1c
1L
0M
1N
1X
1Z
1?
0>
1=
1-
0,
1+
0\
0Y
0L
1^
0?
0-
1M
1>
1,
